{
  "unversionedId": "tutorial-extras/add-config-to-existing",
  "id": "tutorial-extras/add-config-to-existing",
  "title": "Add new config to existing one",
  "description": "It is possible to add another configs to existing one.",
  "source": "@site/docs/tutorial-extras/add-config-to-existing.md",
  "sourceDirName": "tutorial-extras",
  "slug": "/tutorial-extras/add-config-to-existing",
  "permalink": "/docs/tutorial-extras/add-config-to-existing",
  "draft": false,
  "tags": [],
  "version": "current",
  "sidebarPosition": 1,
  "frontMatter": {
    "sidebar_position": 1
  },
  "sidebar": "tutorialSidebar",
  "previous": {
    "title": "Tutorial - Extras",
    "permalink": "/docs/category/tutorial---extras"
  },
  "next": {
    "title": "Database schema",
    "permalink": "/docs/tutorial-extras/erd"
  }
}